hw1/hw1_3/dump.vcd
$date
	Thu Feb  2 08:13:02 2017
$end
$version
	QuestaSim Version 10.4c
$end
$timescale
	1ns
$end

$scope module seqdec_28_bench $end
$var reg 1 ! InA $end
$var wire 1 " Clk $end
$var wire 1 # Reset $end
$var wire 1 $ Out $end
$var reg 128 % sequenc [127:0] $end
$var integer 32 & k $end
$var reg 8 ' seq [7:0] $end
$var reg 8 ( seqp1 [7:0] $end
$var wire 1 ) err $end

$scope module DUT $end
$var wire 1 * InA $end
$var wire 1 " Clk $end
$var wire 1 # Reset $end
$var reg 1 + Out $end
$var wire 1 , state [3] $end
$var wire 1 - state [2] $end
$var wire 1 . state [1] $end
$var wire 1 / state [0] $end
$var reg 4 0 next_state [3:0] $end
$var wire 1 1 not_InA $end

$scope module flip_flop0 $end
$var wire 1 / q $end
$var wire 1 2 d $end
$var wire 1 " clk $end
$var wire 1 # rst $end
$var reg 1 3 state $end
$upscope $end

$scope module flip_flop1 $end
$var wire 1 . q $end
$var wire 1 4 d $end
$var wire 1 " clk $end
$var wire 1 # rst $end
$var reg 1 5 state $end
$upscope $end

$scope module flip_flop2 $end
$var wire 1 - q $end
$var wire 1 6 d $end
$var wire 1 " clk $end
$var wire 1 # rst $end
$var reg 1 7 state $end
$upscope $end

$scope module flip_flop3 $end
$var wire 1 , q $end
$var wire 1 8 d $end
$var wire 1 " clk $end
$var wire 1 # rst $end
$var reg 1 9 state $end
$upscope $end

$scope module not_2 $end
$var wire 1 * in1 $end
$var wire 1 1 out $end
$upscope $end
$upscope $end

$scope module my_ckrst $end
$var reg 1 : clk $end
$var reg 1 ; rst $end
$var wire 1 ) err $end
$var integer 32 < cycle_count $end
$upscope $end
$upscope $end
$enddefinitions $end
#0
$dumpvars
0!
b1010001000010100001010100101110010111001000010100001000101001101010011001010001010000010000101100101110100001001010011 %
b0 '
b0 (
x+
b0 0
03
05
07
09
1:
1;
b0 &
b1 <
1"
1#
x$
0)
x/
x.
x-
x,
11
0*
08
06
04
02
$end
#1
0,
0-
0.
0/
b1 0
0+
12
0$
#50
0:
0"
#100
1:
1"
b10 <
#150
0:
0"
#200
1:
1"
b11 <
#201
0;
0#
#250
0:
0"
#300
1:
1"
b1 &
13
b100 <
#301
1/
b0 0
b10 0
14
02
#350
0:
0"
#400
1:
1"
b10 &
15
03
b101 <
#401
0/
1.
#450
0:
0"
#500
1:
1"
b11 &
b110 <
#550
0:
0"
#600
1:
1"
b100 &
b111 <
#650
0:
0"
#700
1:
1"
b101 &
b1000 <
#750
0:
0"
#800
1:
1"
b110 &
b1001 <
#850
0:
0"
#900
1:
1"
b111 &
b1010 <
#950
0:
0"
#1000
1:
1"
b1000 &
b1011 <
#1050
0:
0"
#1100
1:
1"
b1001 &
b1100 <
#1150
0:
0"
#1200
1:
1"
b1010 &
b1101 <
#1250
0:
0"
#1300
1:
1"
1!
b1011 &
b1110 <
1*
01
b11 0
12
b1 '
#1350
0:
0"
#1400
1:
1"
0!
b1100 &
13
b1111 <
0*
11
b10 0
02
b11 '
b10 '
b1 (
#1401
1/
b0 0
b100 0
16
04
#1450
0:
0"
#1500
1:
1"
1!
b1101 &
05
17
03
b10000 <
1*
01
b0 0
06
b100 '
b101 '
b10 (
#1501
0/
1-
0.
b100 0
b101 0
12
16
#1550
0:
0"
#1600
1:
1"
0!
b1110 &
13
b10001 <
0*
11
b1 0
b0 0
b10 0
14
02
06
b1011 '
b1010 '
b101 (
#1601
1/
b110 0
16
#1650
0:
0"
#1700
1:
1"
b1111 &
15
03
b10010 <
b10100 '
b1010 (
#1701
0/
1.
b111 0
12
#1750
0:
0"
#1800
1:
1"
b10000 &
13
b10011 <
b101000 '
b10100 (
#1801
1/
b110 0
b100 0
b0 0
b1000 0
18
06
04
02
#1850
0:
0"
#1900
1:
1"
1!
b10001 &
05
07
19
03
b10100 <
1*
01
b1001 0
b1011 0
b11 0
08
14
12
b1010000 '
b1010001 '
b101000 (
#1901
0/
1,
0-
0.
1+
1$
#1950
0:
0"
#2000
1:
1"
0!
b10010 &
13
09
15
b10101 <
0*
11
b10 0
02
b10100011 '
b10100010 '
b1010001 (
#2001
1.
0,
1/
b0 0
b100 0
0+
16
04
0$
#2050
0:
0"
#2100
1:
1"
b10011 &
17
05
03
b10110 <
b1000100 '
b10100010 (
#2101
0/
0.
1-
b0 0
b10 0
14
06
#2150
0:
0"
#2200
1:
1"
b10100 &
15
07
b10111 <
b10001000 '
b1000100 (
#2201
0-
1.
#2250
0:
0"
#2300
1:
1"
b10101 &
b11000 <
b10000 '
b10001000 (
#2350
0:
0"
#2400
1:
1"
1!
b10110 &
b11001 <
1*
01
b11 0
12
b100000 '
b100001 '
b10000 (
#2450
0:
0"
#2500
1:
1"
0!
b10111 &
13
b11010 <
0*
11
b10 0
02
b1000011 '
b1000010 '
b100001 (
#2501
1/
b0 0
b100 0
16
04
#2550
0:
0"
#2600
1:
1"
1!
b11000 &
05
17
03
b11011 <
1*
01
b0 0
06
b10000100 '
b10000101 '
b1000010 (
#2601
0/
1-
0.
b100 0
b101 0
12
16
#2650
0:
0"
#2700
1:
1"
0!
b11001 &
13
b11100 <
0*
11
b1 0
b0 0
b10 0
14
02
06
b1011 '
b1010 '
b10000101 (
#2701
1/
b110 0
16
#2750
0:
0"
#2800
1:
1"
b11010 &
15
03
b11101 <
b10100 '
b1010 (
#2801
0/
1.
b111 0
12
#2850
0:
0"
#2900
1:
1"
b11011 &
13
b11110 <
b101000 '
b10100 (
#2901
1/
b110 0
b100 0
b0 0
b1000 0
18
06
04
02
#2950
0:
0"
#3000
1:
1"
b11100 &
05
07
19
03
b11111 <
b1010000 '
b101000 (
#3001
0/
1,
0-
0.
b1010 0
b10 0
1+
08
14
1$
#3050
0:
0"
#3100
1:
1"
1!
b11101 &
09
15
b100000 <
1*
01
b11 0
12
b10100000 '
b10100001 '
b1010000 (
#3101
1.
0,
0+
0$
#3150
0:
0"
#3200
1:
1"
0!
b11110 &
13
b100001 <
0*
11
b10 0
02
b1000011 '
b1000010 '
b10100001 (
#3201
1/
b0 0
b100 0
16
04
#3250
0:
0"
#3300
1:
1"
1!
b11111 &
05
17
03
b100010 <
1*
01
b0 0
06
b10000100 '
b10000101 '
b1000010 (
#3301
0/
1-
0.
b100 0
b101 0
12
16
#3350
0:
0"
#3400
1:
1"
0!
b100000 &
13
b100011 <
0*
11
b1 0
b0 0
b10 0
14
02
06
b1011 '
b1010 '
b10000101 (
#3401
1/
b110 0
16
#3450
0:
0"
#3500
1:
1"
1!
b100001 &
15
03
b100100 <
1*
01
b100 0
b0 0
06
04
b10100 '
b10101 '
b1010 (
#3501
0/
1.
#3550
0:
0"
#3600
1:
1"
0!
b100010 &
07
05
b100101 <
0*
11
b1 0
b11 0
b111 0
16
14
12
b101011 '
b101010 '
b10101 (
#3601
0.
0-
b1 0
06
04
#3650
0:
0"
#3700
1:
1"
b100011 &
13
b100110 <
b1010100 '
b101010 (
#3701
1/
b0 0
b10 0
14
02
#3750
0:
0"
#3800
1:
1"
1!
b100100 &
15
03
b100111 <
1*
01
b0 0
04
b10101000 '
b10101001 '
b1010100 (
#3801
0/
1.
b1 0
b11 0
14
12
#3850
0:
0"
#3900
1:
1"
0!
b100101 &
13
b101000 <
0*
11
b10 0
02
b1010011 '
b1010010 '
b10101001 (
#3901
1/
b0 0
b100 0
16
04
#3950
0:
0"
#4000
1:
1"
1!
b100110 &
05
17
03
b101001 <
1*
01
b0 0
06
b10100100 '
b10100101 '
b1010010 (
#4001
0/
1-
0.
b100 0
b101 0
12
16
#4050
0:
0"
#4100
1:
1"
b100111 &
13
b101010 <
b1001011 '
b10100101 (
#4101
1/
b100 0
b0 0
06
02
#4150
0:
0"
#4200
1:
1"
b101000 &
07
03
b101011 <
b10010111 '
b1001011 (
#4201
0/
0-
#4250
0:
0"
#4300
1:
1"
0!
b101001 &
b101100 <
0*
11
b1 0
12
b101111 '
b101110 '
b10010111 (
#4350
0:
0"
#4400
1:
1"
b101010 &
13
b101101 <
b1011100 '
b101110 (
#4401
1/
b0 0
b10 0
14
02
#4450
0:
0"
#4500
1:
1"
1!
b101011 &
15
03
b101110 <
1*
01
b0 0
04
b10111000 '
b10111001 '
b1011100 (
#4501
0/
1.
b1 0
b11 0
14
12
#4550
0:
0"
#4600
1:
1"
0!
b101100 &
13
b101111 <
0*
11
b10 0
02
b1110011 '
b1110010 '
b10111001 (
#4601
1/
b0 0
b100 0
16
04
#4650
0:
0"
#4700
1:
1"
1!
b101101 &
05
17
03
b110000 <
1*
01
b0 0
06
b11100100 '
b11100101 '
b1110010 (
#4701
0/
1-
0.
b100 0
b101 0
12
16
#4750
0:
0"
#4800
1:
1"
b101110 &
13
b110001 <
b11001011 '
b11100101 (
#4801
1/
b100 0
b0 0
06
02
#4850
0:
0"
#4900
1:
1"
b101111 &
07
03
b110010 <
b10010111 '
b11001011 (
#4901
0/
0-
#4950
0:
0"
#5000
1:
1"
0!
b110000 &
b110011 <
0*
11
b1 0
12
b101111 '
b101110 '
b10010111 (
#5050
0:
0"
#5100
1:
1"
b110001 &
13
b110100 <
b1011100 '
b101110 (
#5101
1/
b0 0
b10 0
14
02
#5150
0:
0"
#5200
1:
1"
1!
b110010 &
15
03
b110101 <
1*
01
b0 0
04
b10111000 '
b10111001 '
b1011100 (
#5201
0/
1.
b1 0
b11 0
14
12
#5250
0:
0"
#5300
1:
1"
0!
b110011 &
13
b110110 <
0*
11
b10 0
02
b1110011 '
b1110010 '
b10111001 (
#5301
1/
b0 0
b100 0
16
04
#5350
0:
0"
#5400
1:
1"
b110100 &
05
17
03
b110111 <
b11100100 '
b1110010 (
#5401
0/
1-
0.
b0 0
b10 0
14
06
#5450
0:
0"
#5500
1:
1"
b110101 &
07
15
b111000 <
b11001000 '
b11100100 (
#5501
1.
0-
#5550
0:
0"
#5600
1:
1"
b110110 &
b111001 <
b10010000 '
b11001000 (
#5650
0:
0"
#5700
1:
1"
1!
b110111 &
b111010 <
1*
01
b11 0
12
b100000 '
b100001 '
b10010000 (
#5750
0:
0"
#5800
1:
1"
0!
b111000 &
13
b111011 <
0*
11
b10 0
02
b1000011 '
b1000010 '
b100001 (
#5801
1/
b0 0
b100 0
16
04
#5850
0:
0"
#5900
1:
1"
1!
b111001 &
05
17
03
b111100 <
1*
01
b0 0
06
b10000100 '
b10000101 '
b1000010 (
#5901
0/
1-
0.
b100 0
b101 0
12
16
#5950
0:
0"
#6000
1:
1"
0!
b111010 &
13
b111101 <
0*
11
b1 0
b0 0
b10 0
14
02
06
b1011 '
b1010 '
b10000101 (
#6001
1/
b110 0
16
#6050
0:
0"
#6100
1:
1"
b111011 &
15
03
b111110 <
b10100 '
b1010 (
#6101
0/
1.
b111 0
12
#6150
0:
0"
#6200
1:
1"
b111100 &
13
b111111 <
b101000 '
b10100 (
#6201
1/
b110 0
b100 0
b0 0
b1000 0
18
06
04
02
#6250
0:
0"
#6300
1:
1"
b111101 &
05
07
19
03
b1000000 <
b1010000 '
b101000 (
#6301
0/
1,
0-
0.
b1010 0
b10 0
1+
08
14
1$
#6350
0:
0"
#6400
1:
1"
1!
b111110 &
09
15
b1000001 <
1*
01
b11 0
12
b10100000 '
b10100001 '
b1010000 (
#6401
1.
0,
0+
0$
#6450
0:
0"
#6500
1:
1"
0!
b111111 &
13
b1000010 <
0*
11
b10 0
02
b1000011 '
b1000010 '
b10100001 (
#6501
1/
b0 0
b100 0
16
04
#6550
0:
0"
#6600
1:
1"
b1000000 &
05
17
03
b1000011 <
b10000100 '
b1000010 (
#6601
0/
1-
0.
b0 0
b10 0
14
06
#6650
0:
0"
#6700
1:
1"
b1000001 &
07
15
b1000100 <
b1000 '
b10000100 (
#6701
1.
0-
#6750
0:
0"
#6800
1:
1"
1!
b1000010 &
b1000101 <
1*
01
b11 0
12
b10000 '
b10001 '
b1000 (
#6850
0:
0"
#6900
1:
1"
0!
b1000011 &
13
b1000110 <
0*
11
b10 0
02
b100011 '
b100010 '
b10001 (
#6901
1/
b0 0
b100 0
16
04
#6950
0:
0"
#7000
1:
1"
1!
b1000100 &
05
17
03
b1000111 <
1*
01
b0 0
06
b1000100 '
b1000101 '
b100010 (
#7001
0/
1-
0.
b100 0
b101 0
12
16
#7050
0:
0"
#7100
1:
1"
0!
b1000101 &
13
b1001000 <
0*
11
b1 0
b0 0
b10 0
14
02
06
b10001011 '
b10001010 '
b1000101 (
#7101
1/
b110 0
16
#7150
0:
0"
#7200
1:
1"
b1000110 &
15
03
b1001001 <
b10100 '
b10001010 (
#7201
0/
1.
b111 0
12
#7250
0:
0"
#7300
1:
1"
1!
b1000111 &
13
b1001010 <
1*
01
b110 0
b100 0
b0 0
06
04
02
b101000 '
b101001 '
b10100 (
#7301
1/
b1 0
b11 0
14
12
#7350
0:
0"
#7400
1:
1"
b1001000 &
07
b1001011 <
b1010011 '
b101001 (
#7401
0-
b10 0
b0 0
04
02
#7450
0:
0"
#7500
1:
1"
0!
b1001001 &
03
05
b1001100 <
0*
11
b100 0
16
b10100111 '
b10100110 '
b1010011 (
#7501
0.
0/
b1 0
06
12
#7550
0:
0"
#7600
1:
1"
1!
b1001010 &
13
b1001101 <
1*
01
b0 0
02
b1001100 '
b1001101 '
b10100110 (
#7601
1/
#7650
0:
0"
#7700
1:
1"
0!
b1001011 &
03
b1001110 <
0*
11
b10 0
14
b10011011 '
b10011010 '
b1001101 (
#7701
0/
b1 0
04
12
#7750
0:
0"
#7800
1:
1"
1!
b1001100 &
13
b1001111 <
1*
01
b0 0
02
b110100 '
b110101 '
b10011010 (
#7801
1/
#7850
0:
0"
#7900
1:
1"
0!
b1001101 &
03
b1010000 <
0*
11
b10 0
14
b1101011 '
b1101010 '
b110101 (
#7901
0/
b1 0
04
12
#7950
0:
0"
#8000
1:
1"
b1001110 &
13
b1010001 <
b11010100 '
b1101010 (
#8001
1/
b0 0
b10 0
14
02
#8050
0:
0"
#8100
1:
1"
1!
b1001111 &
15
03
b1010010 <
1*
01
b0 0
04
b10101000 '
b10101001 '
b11010100 (
#8101
0/
1.
b1 0
b11 0
14
12
#8150
0:
0"
#8200
1:
1"
b1010000 &
13
b1010011 <
b1010011 '
b10101001 (
#8201
1/
b10 0
b0 0
04
02
#8250
0:
0"
#8300
1:
1"
0!
b1010001 &
05
03
b1010100 <
0*
11
b100 0
16
b10100111 '
b10100110 '
b1010011 (
#8301
0/
0.
b1 0
06
12
#8350
0:
0"
#8400
1:
1"
b1010010 &
13
b1010101 <
b1001100 '
b10100110 (
#8401
1/
b0 0
b10 0
14
02
#8450
0:
0"
#8500
1:
1"
1!
b1010011 &
15
03
b1010110 <
1*
01
b0 0
04
b10011000 '
b10011001 '
b1001100 (
#8501
0/
1.
b1 0
b11 0
14
12
#8550
0:
0"
#8600
1:
1"
0!
b1010100 &
13
b1010111 <
0*
11
b10 0
02
b110011 '
b110010 '
b10011001 (
#8601
1/
b0 0
b100 0
16
04
#8650
0:
0"
#8700
1:
1"
1!
b1010101 &
05
17
03
b1011000 <
1*
01
b0 0
06
b1100100 '
b1100101 '
b110010 (
#8701
0/
1-
0.
b100 0
b101 0
12
16
#8750
0:
0"
#8800
1:
1"
0!
b1010110 &
13
b1011001 <
0*
11
b1 0
b0 0
b10 0
14
02
06
b11001011 '
b11001010 '
b1100101 (
#8801
1/
b110 0
16
#8850
0:
0"
#8900
1:
1"
b1010111 &
15
03
b1011010 <
b10010100 '
b11001010 (
#8901
0/
1.
b111 0
12
#8950
0:
0"
#9000
1:
1"
b1011000 &
13
b1011011 <
b101000 '
b10010100 (
#9001
1/
b110 0
b100 0
b0 0
b1000 0
18
06
04
02
#9050
0:
0"
#9100
1:
1"
1!
b1011001 &
05
07
19
03
b1011100 <
1*
01
b1001 0
b1011 0
b11 0
08
14
12
b1010000 '
b1010001 '
b101000 (
#9101
0/
1,
0-
0.
1+
1$
#9150
0:
0"
#9200
1:
1"
0!
b1011010 &
13
09
15
b1011101 <
0*
11
b10 0
02
b10100011 '
b10100010 '
b1010001 (
#9201
1.
0,
1/
b0 0
b100 0
0+
16
04
0$
#9250
0:
0"
#9300
1:
1"
1!
b1011011 &
17
05
03
b1011110 <
1*
01
b0 0
06
b1000100 '
b1000101 '
b10100010 (
#9301
0/
0.
1-
b100 0
b101 0
12
16
#9350
0:
0"
#9400
1:
1"
0!
b1011100 &
13
b1011111 <
0*
11
b1 0
b0 0
b10 0
14
02
06
b10001011 '
b10001010 '
b1000101 (
#9401
1/
b110 0
16
#9450
0:
0"
#9500
1:
1"
b1011101 &
15
03
b1100000 <
b10100 '
b10001010 (
#9501
0/
1.
b111 0
12
#9550
0:
0"
#9600
1:
1"
b1011110 &
13
b1100001 <
b101000 '
b10100 (
#9601
1/
b110 0
b100 0
b0 0
b1000 0
18
06
04
02
#9650
0:
0"
#9700
1:
1"
b1011111 &
05
07
19
03
b1100010 <
b1010000 '
b101000 (
#9701
0/
1,
0-
0.
b1010 0
b10 0
1+
08
14
1$
#9750
0:
0"
#9800
1:
1"
b1100000 &
09
15
b1100011 <
b10100000 '
b1010000 (
#9801
1.
0,
0+
0$
#9850
0:
0"
#9900
1:
1"
1!
b1100001 &
b1100100 <
1*
01
b11 0
12
b1000000 '
b1000001 '
b10100000 (
#9950
0:
0"
#10000
1:
1"
0!
b1100010 &
13
b1100101 <
0*
11
b10 0
02
b10000011 '
b10000010 '
b1000001 (
#10001
1/
b0 0
b100 0
16
04
#10050
0:
0"
#10100
1:
1"
b1100011 &
05
17
03
b1100110 <
b100 '
b10000010 (
#10101
0/
1-
0.
b0 0
b10 0
14
06
#10150
0:
0"
#10200
1:
1"
b1100100 &
07
15
b1100111 <
b1000 '
b100 (
#10201
1.
0-
#10250
0:
0"
#10300
1:
1"
b1100101 &
b1101000 <
b10000 '
b1000 (
#10350
0:
0"
#10400
1:
1"
1!
b1100110 &
b1101001 <
1*
01
b11 0
12
b100000 '
b100001 '
b10000 (
#10450
0:
0"
#10500
1:
1"
0!
b1100111 &
13
b1101010 <
0*
11
b10 0
02
b1000011 '
b1000010 '
b100001 (
#10501
1/
b0 0
b100 0
16
04
#10550
0:
0"
#10600
1:
1"
1!
b1101000 &
05
17
03
b1101011 <
1*
01
b0 0
06
b10000100 '
b10000101 '
b1000010 (
#10601
0/
1-
0.
b100 0
b101 0
12
16
#10650
0:
0"
#10700
1:
1"
b1101001 &
13
b1101100 <
b1011 '
b10000101 (
#10701
1/
b100 0
b0 0
06
02
#10750
0:
0"
#10800
1:
1"
0!
b1101010 &
07
03
b1101101 <
0*
11
b10 0
b110 0
16
14
b10111 '
b10110 '
b1011 (
#10801
0/
0-
b1 0
06
04
12
#10850
0:
0"
#10900
1:
1"
b1101011 &
13
b1101110 <
b101100 '
b10110 (
#10901
1/
b0 0
b10 0
14
02
#10950
0:
0"
#11000
1:
1"
1!
b1101100 &
15
03
b1101111 <
1*
01
b0 0
04
b1011000 '
b1011001 '
b101100 (
#11001
0/
1.
b1 0
b11 0
14
12
#11050
0:
0"
#11100
1:
1"
0!
b1101101 &
13
b1110000 <
0*
11
b10 0
02
b10110011 '
b10110010 '
b1011001 (
#11101
1/
b0 0
b100 0
16
04
#11150
0:
0"
#11200
1:
1"
1!
b1101110 &
05
17
03
b1110001 <
1*
01
b0 0
06
b1100100 '
b1100101 '
b10110010 (
#11201
0/
1-
0.
b100 0
b101 0
12
16
#11250
0:
0"
#11300
1:
1"
b1101111 &
13
b1110010 <
b11001011 '
b1100101 (
#11301
1/
b100 0
b0 0
06
02
#11350
0:
0"
#11400
1:
1"
b1110000 &
07
03
b1110011 <
b10010111 '
b11001011 (
#11401
0/
0-
#11450
0:
0"
#11500
1:
1"
0!
b1110001 &
b1110100 <
0*
11
b1 0
12
b101111 '
b101110 '
b10010111 (
#11550
0:
0"
#11600
1:
1"
1!
b1110010 &
13
b1110101 <
1*
01
b0 0
02
b1011100 '
b1011101 '
b101110 (
#11601
1/
#11650
0:
0"
#11700
1:
1"
0!
b1110011 &
03
b1110110 <
0*
11
b10 0
14
b10111011 '
b10111010 '
b1011101 (
#11701
0/
b1 0
04
12
#11750
0:
0"
#11800
1:
1"
b1110100 &
13
b1110111 <
b1110100 '
b10111010 (
#11801
1/
b0 0
b10 0
14
02
#11850
0:
0"
#11900
1:
1"
b1110101 &
15
03
b1111000 <
b11101000 '
b1110100 (
#11901
0/
1.
#11950
0:
0"
#12000
1:
1"
b1110110 &
b1111001 <
b11010000 '
b11101000 (
#12050
0:
0"
#12100
1:
1"
1!
b1110111 &
b1111010 <
1*
01
b11 0
12
b10100000 '
b10100001 '
b11010000 (
#12150
0:
0"
#12200
1:
1"
0!
b1111000 &
13
b1111011 <
0*
11
b10 0
02
b1000011 '
b1000010 '
b10100001 (
#12201
1/
b0 0
b100 0
16
04
#12250
0:
0"
#12300
1:
1"
b1111001 &
05
17
03
b1111100 <
b10000100 '
b1000010 (
#12301
0/
1-
0.
b0 0
b10 0
14
06
#12350
0:
0"
#12400
1:
1"
1!
b1111010 &
07
15
b1111101 <
1*
01
b110 0
b111 0
b101 0
04
12
16
b1000 '
b1001 '
b10000100 (
#12401
1.
0-
b111 0
b11 0
06
14
#12450
0:
0"
#12500
1:
1"
0!
b1111011 &
13
b1111110 <
0*
11
b10 0
02
b10011 '
b10010 '
b1001 (
#12501
1/
b0 0
b100 0
16
04
#12550
0:
0"
#12600
1:
1"
1!
b1111100 &
05
17
03
b1111111 <
1*
01
b0 0
06
b100100 '
b100101 '
b10010 (
#12601
0/
1-
0.
b100 0
b101 0
12
16
#12650
0:
0"
#12700
1:
1"
0!
b1111101 &
13
b10000000 <
0*
11
b1 0
b0 0
b10 0
14
02
06
b1001011 '
b1001010 '
b100101 (
#12701
1/
b110 0
16
#12750
0:
0"
#12800
1:
1"
b1111110 &
15
03
b10000001 <
b10010100 '
b1001010 (
#12801
0/
1.
b111 0
12
#12850
0:
0"
#12900
1:
1"
1!
b1111111 &
13
b10000010 <
1*
01
b110 0
b100 0
b0 0
06
04
02
b101000 '
b101001 '
b10010100 (
#12901
1/
b1 0
b11 0
14
12
#12950
0:
0"
#13000
1:
1"
b10000000 &
